<svg xmlns="http://www.w3.org/2000/svg" width="75.591" height="25.012" viewBox="0 0 75.591 25.012">
  <path id="Pfad_38" d="M3.33,0V-24.494h6.993a18.962,18.962,0,0,1,4.995.684,14.068,14.068,0,0,1,4.625,2.22,11.273,11.273,0,0,1,3.386,4,12.935,12.935,0,0,1,1.277,6.013,11.593,11.593,0,0,1-1.11,5.272A9.84,9.84,0,0,1,20.479-2.72,13.218,13.218,0,0,1,16.132-.666,19.321,19.321,0,0,1,11.026,0Zm6.956-1.258a11.718,11.718,0,0,0,5.347-1.184,8.621,8.621,0,0,0,3.7-3.608,12.466,12.466,0,0,0,1.351-6.124,11.924,11.924,0,0,0-1.055-5.106,10.712,10.712,0,0,0-2.886-3.774,10.491,10.491,0,0,0-4.163-2.109,22.26,22.26,0,0,0-2.941.222,16,16,0,0,0-2.683.555V-1.591a8.755,8.755,0,0,0,1.48.241Q9.4-1.258,10.286-1.258Zm34,1.776L35.7-11.692H32.856V0H29.23V-24.494h7.992a12.258,12.258,0,0,1,4.329.722A7,7,0,0,1,44.6-21.663a5.248,5.248,0,0,1,1.129,3.423,4.972,4.972,0,0,1-2,4.162,11.556,11.556,0,0,1-5.069,2.09L48.581,0ZM32.856-12.8h2.368a8.788,8.788,0,0,0,4.125-.777,4.381,4.381,0,0,0,1.979-1.979,5.9,5.9,0,0,0,.555-2.5,7.917,7.917,0,0,0-.092-.833,5.72,5.72,0,0,0-.463-1.48,4.846,4.846,0,0,0-1.2-1.591,5.58,5.58,0,0,0-2.312-1.165,20.56,20.56,0,0,0-2.535.185,18.489,18.489,0,0,0-2.424.444ZM52.244,0l1.369-24.494h3.441L65.6-5.809l8.177-18.685h3.774L78.921,0H75.147l-1-21.053H74L64.676,0h-.518L55.019-20.2h-.148l-1,20.2Z" transform="translate(-3.33 24.494)" fill="#fff"/>
</svg>
