<svg id="Ebene_1" xmlns="http://www.w3.org/2000/svg" viewBox="0 0 1465.1 596">
    <path id="bg_merlot" d="m-30.1-20.1l1505.4,5.2-418.8,634.5H-30.1V-20.1Z" style="fill:#7e1e26;"/>
    <path id="bg_transparent" d="m641.6-16.6h462.9l209.5,636.2h-487L641.6-16.6Z"
          style="fill:#f5ddbd; isolation:isolate; opacity:.4;"/>
</svg>
