<svg xmlns="http://www.w3.org/2000/svg" xmlns:xlink="http://www.w3.org/1999/xlink" width="1920" height="583.408" viewBox="0 0 1920 583.408">
  <defs>
    <linearGradient id="linear-gradient" x1="0.5" x2="0.5" y2="1.058" gradientUnits="objectBoundingBox">
      <stop offset="0" stop-color="#e6cbca"/>
      <stop offset="1" stop-color="#f2eaea"/>
    </linearGradient>
  </defs>
  <path id="Pfad_26" data-name="Pfad 26" d="M0,0H1920L1739.345,392,787.98,583.408Z" fill="url(#linear-gradient)"/>
</svg>
