<svg xmlns="http://www.w3.org/2000/svg" width="26" height="28" viewBox="0 0 26 28">
  <path id="_grid" d="M26,28H19.5V21H26v7Zm-9.75,0H9.75V21h6.5v7ZM6.5,28H0V21H6.5v7ZM26,17.5H19.5v-7H26v7Zm-9.75,0H9.75v-7h6.5v7Zm-9.75,0H0v-7H6.5v7ZM26,7H19.5V0H26V7ZM16.25,7H9.75V0h6.5V7ZM6.5,7H0V0H6.5V7Z" fill="rgba(0,0,0,0.38)"/>
</svg>
