{
  "Metadaten": {
      "Bild": "",
      "Titel": "Digitaler Ressourcen Manager (DRM)",
      "Untertitel": "Ein Projekt vom Vorhaben CVMA und TELOTA – IT/DH, beide BBAW",
      "Einleitung": "Der Digitale Ressourcen Manager dient der Annotation der Bilddateien mit Metadaten und soll die relevanten Keys mittles ExifTool in die Bilder schreiben.",
      "Dokumentation": "Siehe Googledoc: https://docs.google.com/document/d/1_JXjtaiFNn1Gi2SgCP3YWcH35sJzBMlL4y7H3EJ4260/edit#",
      "Standardliste": [
          "Directory",
          "Title",
          "Type",
          "Relation",
          "Volume",
          "Figure",
          "Identifier",
          "PhotographicType",
          "DigitalSourceType",
          "PhotographicContext",
          "CreateDate",
          "CreateDateHelper",
          "LocationCreatedWorldRegion",
          "LocationCreatedCountryName",
          "LocationCreatedProvinceState",
          "LocationCreatedCity",
          "LocationCreatedSublocation",
          "PartOfBuilding",
          "GPSLatitude",
          "GPSLongitude",
          "LocationCreatedLocationId",
          "Direction",
          "Pane",
          "Row",
          "Column",
          "FormerLocation",
          "FormerLocationIds",
          "ObjectHeight",
          "ObjectWidth",
          "ObjectDiameter",
          "AOCircaDateCreated",
          "AgeDeterminationStart",
          "AgeDeterminationEnd",
          "PaneLost",
          "RestorationHistory",
          "RestorationCircaDate",
          "RestorationDateStart",
          "RestorationDateEnd",
          "RestorationEvent",
          "EntityName",
          "EntityIdentifier",
          "EntityRole",
          "IconclassNotation",
          "HoldingInstitution",
          "IconclassDescription",
          "Marked",
          "Creator",
          "Owner",
          "Publisher",
          "Credit",
          "UsageTerms",
          "WebStatement",
          "PublishingStatus",
          "Instructions",
          "PublishToArchive",
          "AllgemeinRest",
          "AufnahmeRest",
          "BemerkungenRest",
          "EntityRest",
          "IconclassRest",
          "OrtRest",
          "ScheibeRest",
          "AbgleichArchivHelper",
          "BildbearbeitungNeuscanHelper",
          "MigrationStatusTemporaryCopy",
          "description",
          "subject",
          "DateTimeOriginal",
          "Model",
          "SerialNumber",
          "CreatorTool",
          "Make",
          "ICCProfile",
          "FileName",
          "IconclassMotiv",
          "IconclassCategory",
          "DRM",
          "DatumJSON",
          "DatumXMP",
          "Angemeldet"
      ]
  },
  "Keys": {
      "Status": {
          "Group": "Info",
          "Zuordnung": "Intern",
          "Mapping": "Status",
          "Anweisungen": "Arbeitsstand",
          "Auswahlliste": [
              "neu",
              "bereinigt",
              "fertig"
          ],
          "InterneAnmerkungen": "Nur intern"
      },
      "Image": {
          "Mehrfachwerte": "Nein",
          "Group": "Info",
          "Zuordnung": "Intern",
          "Mapping": "Bild",
          "Anweisungen": "Thumb des Objektes",
          "InterneAnmerkungen": "Nur intern"
      },
      "Directory": {
          "Mehrfachwerte": "Nein",
          "Group": "Info",
          "Zuordnung": "Intern",
          "Mapping": "Pfad",
          "Anweisungen": "zeigt wo sich das Bild im Ordnersystem befindet",
          "InterneAnmerkungen": "Nur intern"
      },
      "Notizen": {
          "Mehrfachwerte": "Nein",
          "Group": "Info",
          "Zuordnung": "Intern",
          "Mapping": "Notizen",
          "Anweisungen": "Temporäre Notizen",
          "InterneAnmerkungen": "Nur intern, nicht nach Mainz mappen oder als XMP schreiben."
      },
      "Angemeldet": {
        "Mehrfachwerte": "Nein",
        "Group": "Info",
        "Zuordnung": "Intern",
        "Mapping": "Angemeldet",
        "Anweisungen": "Wann wurde das Bild angemeldet",
        "InterneAnmerkungen": "Nur intern"
      },
       "DatumJSON": {
        "Mehrfachwerte": "Nein",
        "Group": "Info",
        "Zuordnung": "Intern",
        "Mapping": "DatumJSON",
        "Anweisungen": "Datum des letzten Eintrages in die Metadaten",
        "InterneAnmerkungen": "Nur intern"
      },
      "DatumXMP": {
        "Mehrfachwerte": "Nein",
        "Group": "Info",
        "Zuordnung": "Intern",
        "Mapping": "DatumXMP",
        "Anweisungen": "Datum des letzten Eintrages in das Bild",
        "InterneAnmerkungen": "Nur intern"
      },
      "FileName": {
          "Mehrfachwerte": "Nein",
          "Group": "Info",
          "Zuordnung": "Intern",
          "Mapping": "Dateiname",
          "Anweisungen": "",
          "InterneAnmerkungen": ""
      },
      "Neuer_Dateiname": {
          "Mehrfachwerte": "Nein",
          "Group": "Info",
          "Zuordnung": "Intern",
          "Mapping": "Neuer Dateiname",
          "Anweisungen": "Falls der Name der Datei sich ändert, kann das hier vermerkt werden.",
          "InterneAnmerkungen": "Nur intern, nicht nach Mainz mappen oder als XMP schreiben."
      },
      "Title": {
          "Mehrfachwerte": "Nein",
          "Group": "Allgemein",
          "Zuordnung": "Standard",
          "Mapping": "Titel",
          "Anweisungen": "Beschreibender Titel des abgebildeten Werks bzw. der abgebildeten Scheibe, z. B. Hl. Severus",
          "InterneAnmerkungen": ""
      },
      "Type": {
          "Mehrfachwerte": "Ja",
          "Group": "Allgemein",
          "Zuordnung": "Standard",
          "Mapping": "Gattung",
          "Anweisungen": "Gattung des dargestellten Werks in Hinblick auf Material und Technik.",
          "Auswahlliste": [
              "kein Wert",
              "Glasmalerei",
              "Buchmalerei",
              "Tafelmalerei",
              "Wandmalerei",
              "Architektur",
              "Skulptur",
              "Zeichnung",
              "Druckgraphik",
              "Textilwerk",
              "Bauornamentik",
              "Metallwerk"
          ],
          "InterneAnmerkungen": ""
      },
      "Relation": {
          "Mehrfachwerte": "Nein",
          "Group": "Allgemein",
          "Zuordnung": "Standard",
          "Mapping": "Name des Fensters",
          "Anweisungen": "Eigenname des Fensters zu dem dieses Bild / diese Scheibe in Beziehung steht",
          "InterneAnmerkungen": ""
      },
      "Volume": {
          "Mehrfachwerte": "Nein",
          "Group": "Allgemein",
          "Zuordnung": "Standard",
          "Mapping": "Band",
          "Anweisungen": "Angabe des Bands, in dem das Bild publiziert wurde (eindeutige Bezeichnung und Nummer des Bandes in der CVMA-Publikationsreihe, z. B. XXII,1).",
          "InterneAnmerkungen": ""
      },
      "Figure": {
          "Mehrfachwerte": "Nein",
          "Group": "Allgemein",
          "Zuordnung": "Standard",
          "Mapping": "Tafel/Figur/Abbildung",
          "Anweisungen": "Abbildungsnummern im Band der CVMA-Publikationsreihe; arabische oder römische Ziffern mit den drei Präfixen Taf., Fig. oder Abb., z. B. Fig. 2.",
          "InterneAnmerkungen": ""
      },
      "Identifier": {
          "Mehrfachwerte": "Nein",
          "Group": "Aufnahme",
          "Zuordnung": "Default",
          "Mapping": "Inventarnummer",
          "Anweisungen": "Eindeutige Referenz der Datei/des Bildes/des Negativs, wird automatisch vergeben.",
          "InterneAnmerkungen": ""
      },
      "PhotographicType": {
          "Mehrfachwerte": "Nein",
          "Group": "Aufnahme",
          "Zuordnung": "Default",
          "Mapping": "Aufnahmeart",
          "Anweisungen": "Fotografisches Verfahren am Objekt, gemäß Auswahlliste. Nur für Glasmalerei-Aufnahmen zu verwenden.",
          "Auswahlliste": [
              "Auflicht Vorderseite Einzelaufnahme",
              "Auflicht Vorderseite Detailaufnahme",
              "Auflicht Vorderseite Gesamtaufnahme",
              "Auflicht Rückseite Einzelaufnahme",
              "Auflicht Rückseite Detailaufnahme",
              "Auflicht Rückseite Gesamtaufnahme",
              "Durchlicht Vorderseite Einzelaufnahme",
              "Durchlicht Vorderseite Detailaufnahme",
              "Durchlicht Vorderseite Gesamtaufnahme",
              "Durchlicht Rückseite Einzelaufnahme",
              "Durchlicht Rückseite Detailaufnahme",
              "Durchlicht Rückseite Gesamtaufnahme"
          ],
          "InterneAnmerkungen": ""
      },
      "DigitalSourceType": {
          "Mehrfachwerte": "Nein",
          "Group": "Aufnahme",
          "Zuordnung": "Standard",
          "Mapping": "Typ der Digitalbildquelle",
          "Anweisungen": "Herstellungsmethode der fotografischen Aufnahme gemäß Auswahlliste. Die Bildquelle analoger Bilder kann unter Hinweise(intern) spezifiziert werden.",
          "Auswahlliste": [
              "Originaldigitalaufnahme",
              "digitalisiert von einem Filmnegativ",
              "digitalisiert von einem Filmpositiv",
              "digitalisiert von einer Aufsichtsvorlage",
              "mit Software erstellte Montage",
              "mit Software erstelltes Schema"
          ],
          "InterneAnmerkungen": ""
      },
      "PhotographicContext": {
          "Mehrfachwerte": "Nein",
          "Group": "Aufnahme",
          "Zuordnung": "Standard",
          "Mapping": "Aufnahmekontext",
          "Anweisungen": "Situation der Erstellung der fotografischen Aufnahme gemäß Auswahlliste. Nur für Glasmalerei-Aufnahmen zu verwenden.",
          "InterneAnmerkungen": "",
          "Auswahlliste": [
              "in situ",
              "ausgebaut"
          ]
      },
      "CreateDate": {
          "Mehrfachwerte": "Nein",
          "Group": "Aufnahme",
          "Zuordnung": "Standard (default)",
          "Mapping": "Aufnahmedatum",
          "Anweisungen": "Datum der Herstellung der Fotografie, im Unterschied zum Herstellungsdatum des dargestellten Objekts; Werte: YYYY, YYYY-MM, YYYY-MM-DD, YYYY-MM-DDThh-mm-ss, YYYY-MM-DDThh:mm:ss+hh:00",
          "InterneAnmerkungen": "Wird ggfs. automatisiert von Software mit Erstelldatum der Datei überschrieben."
      },
      "CreateDateHelper": {
          "Mehrfachwerte": "Nein",
          "Group": "Aufnahme",
          "Zuordnung": "Standard",
          "Mapping": "Aufnahmedatum (Helper)",
          "Anweisungen": "Backupfeld für das Datum der Herstellung der Fotografie; Werte Datum: YYYY, YYYY-MM, YYYY-MM-DD, YYYY-MM-DDThh-mm-ss, YYYY-MM-DDThh:mm:ss+hh:00",
          "InterneAnmerkungen": "Muss in Aufnahmedatum überführt werden, falls dieses überschrieben wurde."
      },
      "LocationCreatedWorldRegion": {
          "Mehrfachwerte": "Nein",
          "Group": "Ort",
          "Zuordnung": "Standard",
          "Mapping": "Kontinent",
          "Anweisungen": "Name eines Kontinents/einer Weltregion.",
          "InterneAnmerkungen": "",
          "Auswahlliste": [
              "Afrika",
              "Antarktika",
              "Asien",
              "Australien und Ozeanien",
              "Europa",
              "Nordamerika",
              "Südamerika"
          ]
      },
      "LocationCreatedCountryName": {
          "Mehrfachwerte": "Nein",
          "Group": "Ort",
          "Zuordnung": "Standard",
          "Mapping": "Land",
          "Anweisungen": "Name eines Staats/eines Landes. Dieses Element ist auf der zweiten Ebene einer geographischen Hierarchie angesiedelt.",
          "InterneAnmerkungen": ""
      },
      "LocationCreatedProvinceState": {
          "Mehrfachwerte": "Nein",
          "Group": "Ort",
          "Zuordnung": "Standard",
          "Mapping": "Bundesland/Region",
          "Anweisungen": "Name einer Region/einer untergeordneten Verwaltungseinheit eines Staats. Dieses Element ist auf der dritten Ebene einer geographischen Hierarchie angesiedelt.",
          "InterneAnmerkungen": ""
      },
      "LocationCreatedCity": {
          "Mehrfachwerte": "Nein",
          "Group": "Ort",
          "Zuordnung": "Standard",
          "Mapping": "Stadt",
          "Anweisungen": "Name einer Stadt/Ortschaft mit Eigennamen. Dieses Element ist auf der vierten Ebene einer geographischen Hierarchie angesiedelt.",
          "InterneAnmerkungen": ""
      },
      "LocationCreatedSublocation": {
          "Mehrfachwerte": "Nein",
          "Group": "Ort",
          "Zuordnung": "Standard",
          "Mapping": "Gebäude",
          "Anweisungen": "Name eines Bauwerks/Gebäudekomplexes, entweder als Untereinheit einer Stadt/Ortschaft oder als bekanntes solitäres Monument außerhalb einer Stadt. Dieses Element ist auf der fünften Ebene einer geographischen Hierarchie angesiedelt. Sofern bekannt Nennung des Patrozinium einer Kirche, z. B. Pfarrkirche St. Marien, Stadtmuseum, Münster Unserer lieben Frauen.",
          "InterneAnmerkungen": ""
      },
      "PartOfBuilding": {
          "Mehrfachwerte": "Nein",
          "Group": "Ort",
          "Zuordnung": "Standard",
          "Mapping": "Gebäudeteil",
          "Anweisungen": "Name eines Bauteils als Untereinheit eines Bauwerks oder eines Gebäudekomplexes. Dieses Element ist auf der sechsten Ebene einer geographischen Hierarchie angesiedelt. Sofern bekannt Nennung des Patrozinium einer Kapelle oder Eigennamen eines Raumes, Z. B. Chor, Langhaus, Sakristei usw.",
          "InterneAnmerkungen": ""
      },
      "GPSLatitude": {
          "Mehrfachwerte": "Nein",
          "Group": "Ort",
          "Zuordnung": "Standard",
          "Mapping": "Geographische Breite",
          "Anweisungen": "Breitengrad des Gebäudes",
          "InterneAnmerkungen": ""
      },
      "GPSLongitude": {
          "Mehrfachwerte": "Nein",
          "Group": "Ort",
          "Zuordnung": "Standard",
          "Mapping": "Geographische Länge",
          "Anweisungen": "Längengrad des Gebäudes",
          "InterneAnmerkungen": ""
      },
      "LocationCreatedLocationId": {
          "Mehrfachwerte": "Nein",
          "Group": "Ort",
          "Zuordnung": "Standard",
          "Mapping": "Geographischer Identifikator",
          "Anweisungen": "Weltweit eindeutiger geographischer Identifikator (URI) des Gebäudes (Geonames), z. B. http://www.geonames.org/2955439",
          "InterneAnmerkungen": ""
      },
      "Direction": {
          "Mehrfachwerte": "Nein",
          "Group": "Ort",
          "Zuordnung": "Standard",
          "Mapping": "Himmelsrichtung",
          "Anweisungen": "Himmelsrichtung des Fensters nach CVMA-Notation: Kleinschreibung bei Fensterplätzen der unteren Ebene, ebenso mit Zusatz für Zwischenzonen (Triforien, Emporen); Großschreibung bei Fensterplätzen im Obergaden usw.; Auswahlliste: n, s, w, nw, sw, N, S, W, NW, SW, Triforium nord, Triforium süd, Empore nord, Empore süd",
          "InterneAnmerkungen": ""
      },
      "Pane": {
          "Mehrfachwerte": "Nein",
          "Group": "Ort",
          "Zuordnung": "Standard",
          "Mapping": "Fensternummer",
          "Anweisungen": "Nummerierung der Fenster einer Himmelsrichtung an einem Gebäudeteil nach CVMA-Richtlinien; aufsteigende römische Ziffern beginnend mit II zu beiden Seiten des standardmäßig mit „I“ bezeichneten Chorachsenfensters bzw. des mit H I bezeichneten Achsenfensters im Chorobergaden.",
          "InterneAnmerkungen": ""
      },
      "Row": {
          "Mehrfachwerte": "Nein",
          "Group": "Ort",
          "Zuordnung": "Standard",
          "Mapping": "Zeile",
          "Anweisungen": "Bezeichnung der horizontalen Zeile des Fensters, in der sich die Scheibe befindet; numerische Zählung, von unten nach oben fortlaufend, beginnend mit 1. Für mehrere Zeilen übergreifende Abbildungen wird die Spanne von-bis mit Bindestrich ohne Leerzeichen angegeben. Bei Gesamtaufnahmen wird auf die Angabe der Zeilen verzichtet.",
          "InterneAnmerkungen": ""
      },
      "Column": {
          "Mehrfachwerte": "Nein",
          "Group": "Ort",
          "Zuordnung": "Standard",
          "Mapping": "Bahn",
          "Anweisungen": "Bezeichnung der vertikalen Bahn (Lanzette) des Fensters, in der sich die Scheibe befindet; kleine lateinische Buchstaben beginnend links mit a. Für mehrere Bahnen übergreifende Abbildungen wird die Spanne von-bis mit Bindestrich ohne Leerzeichen angegeben. Im Maßwerkcouronnement bezeichnen entsprechende Großbuchstaben die Bahn über der sich das Feld befindet. Bei Gesamtaufnahmen wird auf die Angabe der Bahnen verzichtet.",
          "InterneAnmerkungen": ""
      },
      "FormerLocation": {
          "Mehrfachwerte": "Nein",
          "Group": "Ort",
          "Zuordnung": "Standard",
          "Mapping": "Ehemaliger Standort",
          "Anweisungen": "Ursprüngliche(r)/ehemalige(r) Standort(e). Mehrfachnennungen bei komplizierteren Provenienzen abgetrennt durch Semikolon.",
          "InterneAnmerkungen": ""
      },
      "FormerLocationIds": {
          "Mehrfachwerte": "Nein",
          "Group": "Ort",
          "Zuordnung": "Standard",
          "Mapping": "Geographischer Identifikator (Ursprung)",
          "Anweisungen": "Geographische(r) Identifikator(en) für ursprüngliche(n) bzw. ehemalige(n) Standort(e). Die Identifikatoren-URIs basieren auf der Geonames-Konkordanz der CVMA Standorte.",
          "InterneAnmerkungen": ""
      },
      "ObjectHeight": {
          "Mehrfachwerte": "Nein",
          "Group": "Scheibe_Fenster",
          "Zuordnung": "Standard",
          "Mapping": "Höhe",
          "Anweisungen": "Bitte als Kommazahl (Punktnotation) eingeben, z. B. 17.5, 360. - Maß der maximalen vertikalen Ausdehnung des Objekts in Zentimeter als Kommazahl. Bei Montagen mehrerer Objekte ungefähre durchschnittliche Größe, bei Teilaufnahmen weglassen, bei Gesamtaufnahmen Gesamtmaß des Fensters angeben.",
          "InterneAnmerkungen": ""
      },
      "ObjectWidth": {
          "Mehrfachwerte": "Nein",
          "Group": "Scheibe_Fenster",
          "Zuordnung": "Standard",
          "Mapping": "Breite",
          "Anweisungen": "Bitte als Kommazahl (Punktnotation) eingeben, z. B. 35.1, 120. - Maß der maximalen horizontalen Ausdehnung des Objekts in Zentimeter als Kommazahl. Bei Montagen mehrerer Objekte ungefähre durchschnittliche Größe, bei Teilaufnahmen weglassen, bei Gesamtaufnahmen Gesamtmaß des Fensters angeben.",
          "InterneAnmerkungen": ""
      },
      "ObjectDiameter": {
          "Mehrfachwerte": "Nein",
          "Group": "Scheibe_Fenster",
          "Zuordnung": "Standard",
          "Mapping": "Durchmesser",
          "Anweisungen": "Bitte als Kommazahl (Punktnotation) eingeben, z. B. 30.5. - Durchmesser des Objektes in Zentimeter. Bei Montagen durchschnittlicher Durchmesser.",
          "InterneAnmerkungen": ""
      },
      "AOCircaDateCreated": {
          "Mehrfachwerte": "Nein",
          "Group": "Scheibe_Fenster",
          "Zuordnung": "Standard",
          "Mapping": "Entstehungsdatum",
          "Anweisungen": "Annäherndes Datum bzw. Zeitraum in dem das abgebildete Werk oder wesentliche Teile davon geschaffen wurden. Freitext, z. B. um 1230, Ende/Anfang 1430, vor/nach 1289.",
          "InterneAnmerkungen": ""
      },
      "AgeDeterminationStart": {
          "Mehrfachwerte": "Nein",
          "Group": "Scheibe_Fenster",
          "Zuordnung": "Standard",
          "Mapping": "Normdatum (Anfang)",
          "Anweisungen": "Beginn eines Entstehungszeitraums nach ISO-Schema (1523-01-01). Sofern ein Normdatum (Anfang) gesetzt wird, muss auch ein Normdatum (Ende) gesetzt werden. Im Fall eines einzigen Jahres wird das Normdatum (Anfang) auf den 1. Januar, das Normdatum (Ende) auf den 31. Dezember des gleichen Jahres gesetzt.",
          "InterneAnmerkungen": ""
      },
      "AgeDeterminationEnd": {
          "Mehrfachwerte": "Nein",
          "Group": "Scheibe_Fenster",
          "Zuordnung": "Standard",
          "Mapping": "Normdatum (Ende)",
          "Anweisungen": "Ende eines Entstehungszeitraums nach ISO-Schema (1525-12-31). Sofern ein Normdatum (Anfang) gesetzt wird, muss auch das Normdatum (Ende) gesetzt werden. Im Fall eines Jahres wird das Normdatum (Anfang) auf den 1. Januar, das Normdatum (Ende) auf den 31. Dezember gesetzt.",
          "InterneAnmerkungen": ""
      },
      "PaneLost": {
          "Mehrfachwerte": "Nein",
          "Group": "Scheibe_Fenster",
          "Zuordnung": "Standard",
          "Mapping": "Verlorene Scheibe",
          "Anweisungen": "Angabe ob eine Scheibe verloren ist oder nicht. Ist kein Wert angegeben, so wird als Standardwert „False“ angenommen",
          "Auswahlliste": [
              "true",
              "false"
          ],
          "InterneAnmerkungen": ""
      },
      "RestorationHistory": {
          "Mehrfachwerte": "Nein",
          "Group": "Restaurierungen",
          "Zuordnung": "Standard",
          "Mapping": "Restaurierungsgeschichte",
          "Anweisungen": "Veraltetes Feld, das in neueren Beständen durch mehrere getrennte Felder abgelöst wird. Enthält Informationen zur Restaurierung des abgebildeten Objektes als Freitext, z. B.: Werkstatt Hermann Kellner, Nürnberg, 1839.",
          "InterneAnmerkungen": ""
      },
      "RestorationCircaDate": {
          "Mehrfachwerte": "Ja",
          "Group": "Restaurierungen",
          "Zuordnung": "Standard",
          "Mapping": "Restaurierung Datum",
          "Anweisungen": "Annäherndes Datum bzw. Zeitraum von Restaurierungen des abgebildeten Objektes als Freitext.",
          "InterneAnmerkungen": ""
      },
      "RestorationDateStart": {
          "Mehrfachwerte": "Ja",
          "Group": "Restaurierungen",
          "Zuordnung": "Standard",
          "Mapping": "Restaurierung Normdatum (Anfang)",
          "Anweisungen": "Beginn eines Restaurierungsvorgangs nach ISO-Schema. Sofern ein Normdatum (Anfang) gesetzt wird, muss auch ein Normdatum (Ende) gesetzt werden. Im Fall eines einzigen Jahres wird das Normdatum (Anfang) auf den 1. Januar, das Normdatum (Ende) auf den 31. Dezember des gleichen Jahres gesetzt.",
          "InterneAnmerkungen": ""
      },
      "RestorationDateEnd": {
          "Mehrfachwerte": "Ja",
          "Group": "Restaurierungen",
          "Zuordnung": "Standard",
          "Mapping": "Restaurierung Normdatum (Ende)",
          "Anweisungen": "Ende eines Restaurierungsvorgangs nach ISO-Schema. Sofern ein Normdatum (Anfang) gesetzt wird, muss auch ein Normdatum (Ende) gesetzt werden. Im Fall eines einzigen Jahres wird das Normdatum (Anfang) auf den 1. Januar, das Normdatum (Ende) auf den 31. Dezember des gleichen Jahres gesetzt.",
          "InterneAnmerkungen": ""
      },
      "RestorationEvent": {
          "Mehrfachwerte": "Ja",
          "Group": "Restaurierungen",
          "Zuordnung": "Standard",
          "Mapping": "Restaurierung Vorgang",
          "Anweisungen": "Bezeichnung des Restaurierungsvorgangs des abgebildeten Objektes als Freitext.",
          "InterneAnmerkungen": ""
      },
      "EntityName": {
          "Mehrfachwerte": "Ja",
          "Group": "Personen_Koerperschaften",
          "Zuordnung": "Standard",
          "Mapping": "Person/Körperschaft (Name)",
          "Anweisungen": "Name der Person oder Körperschaft (wenn möglich die bevorzugte Namenansetzung gemäß dem verwendetem Normdatensystem), z. B. Willhelm II.",
          "InterneAnmerkungen": ""
      },
      "EntityIdentifier": {
          "Mehrfachwerte": "Ja",
          "Group": "Personen_Koerperschaften",
          "Zuordnung": "Standard",
          "Mapping": "Person/Körperschaft (Identifikator)",
          "Anweisungen": "Weltweit eindeutiger Identifikator für die Person oder Körperschaft nach CVMA-Identifikatorensystem.",
          "InterneAnmerkungen": ""
      },
      "EntityRole": {
          "Mehrfachwerte": "Ja",
          "Group": "Personen_Koerperschaften",
          "Zuordnung": "Standard",
          "Mapping": "Person/Körperschaft (Rolle)",
          "Anweisungen": "Rolle/Funktion der erfassten Person/Körperschaft in Bezug zum abgebildeten Objekt gemäß Auswahlliste.",
          "Auswahlliste": [
              "Dargestellter",
              "Entwerfer",
              "Hersteller",
              "Repräsentation",
              "Restaurator",
              "Sammler",
              "Stifter"
          ],
          "InterneAnmerkungen": ""
      },
      "IconclassNotation": {
          "Mehrfachwerte": "Ja",
          "Group": "Iconclass",
          "Zuordnung": "Standard",
          "Mapping": "Iconclass Notation",
          "Anweisungen": "Alphanummerische Notation(en) aus der IconClass-Klassifikation zur Beschreibung der im Werk dargestellten Ikonographie, z.B. 73B57.",
          "InterneAnmerkungen": "ExifToolGUI wandelt * als Trenner sauber in RDF-Listen um. Das Frontend kann im Zweifelsfall auch * im String als Trenner auslesen. Kommata sollten nicht zum Trennen mehrerer Iconclasses verwendet werden, da sie als Zeichen in Iconclasses vorkommen können."
      },
      "IconclassCategory": {
          "Mehrfachwerte": "Ja",
          "Group": "Iconclass",
          "Zuordnung": "Standard",
          "Mapping": "Kategorie (aus Iconclass)",
          "Anweisungen": "Zeigt die Kategorie der IconClass an und wird dynamisch abgerufen.",
          "InterneAnmerkungen": ""
      },
      "IconclassMotiv": {
          "Mehrfachwerte": "Ja",
          "Group": "Iconclass",
          "Zuordnung": "Standard",
          "Mapping": "Beschreibung (aus Iconclass)",
          "Anweisungen": "Zeigt die Beschreibung der Iconclass an und wird dynamisch abgerufen.",
          "InterneAnmerkungen": ""
      },
      "IconclassDescription": {
          "Mehrfachwerte": "Ja",
          "Group": "Iconclass",
          "Zuordnung": "Standard",
          "Mapping": "Iconclass Beschreibung",
          "Anweisungen": "Beschreibender Text entsprechend der Iconclass-Klassifikation, z. B. die Heilige Sippe.",
          "InterneAnmerkungen": "Es muss nur das Label der Iconclass(es) angegeben werden, nicht die zugehörigen Stichworte. Im Frontend werden ggf. Informationen per API ergänzt. Da dieses Feld vor allem der Komplettierung der Daten in den Arbeitsstellen und beim Download der Bilder dient, können mehrere Label (bei mehreren zutreffenden Iconclasses) per Komma oder Simikolon getrennt nacheinander eingetragen werden."
      },
      "Marked": {
          "Mehrfachwerte": "Nein",
          "Group": "Rechte",
          "Zuordnung": "Standard",
          "Mapping": "Rechtestatus",
          "Anweisungen": "Wenn zutreffend, dann handelt es sich um ein urheberrechtlich geschütztes Werk; wenn unzutreffend, dann handelt es sich um ein gemeinfreies Werk; kein Eintrag wenn der Rechtestatus unbekannt ist.",
          "Auswahlliste": [
              "true",
              "false"
          ],
          "InterneAnmerkungen": ""
      },
      "Creator": {
          "Mehrfachwerte": "Ja",
          "Group": "Rechte",
          "Zuordnung": "Standard",
          "Mapping": "Autor",
          "Anweisungen": "Eine Person oder Körperschaft, die für die Erstellung der Fotografie verantwortlich war, i.d.R. Fotografen bzw. Fotoagenturen, (mehrere Namen werden mit Komma getrennt), z. B.: Holger Kupfer, Jochen Wermann.",
          "InterneAnmerkungen": "Textvorschläge automatisch ergänzen, haben Auswahlliste in FS angereichert."
      },
      "Owner": {
          "Mehrfachwerte": "Ja",
          "Group": "Rechte",
          "Zuordnung": "Standard",
          "Mapping": "Rechteinhaber",
          "Anweisungen": "Inhaber der Rechte an der Fotografie, Person oder Körperschaft, der die Verwertungsrechte besitzt (Institution, z.B. Verlag oder Bibliothek bzw. Person), z. B. CVMA Potsdam",
          "InterneAnmerkungen": ""
      },
      "Publisher": {
          "Mehrfachwerte": "Nein",
          "Group": "Rechte",
          "Zuordnung": "Standard",
          "Mapping": "Herausgeber",
          "Anweisungen": "Herausgeber der Fotografie, id. R. eine der beiden CVMA Arbeitsstellen, CVMA Potsdam – http://www.corpusvitrearum.de/ oder CVMA Freiburg – http://www.corpusvitrearum.de/.",
          "InterneAnmerkungen": ""
      },
      "Credit": {
          "Mehrfachwerte": "Nein",
          "Group": "Rechte",
          "Zuordnung": "Standard",
          "Mapping": "Rechtenennung",
          "Anweisungen": "Vom Rechteinhaber vorgegebene Ansetzungsform des Bildnachweises in Publikationen; Quellennachweis, mehrere Sprachen möglich; für die Angabe von Literatur werden die Zitationsrichtlinien des CVMA verwendet.",
          "InterneAnmerkungen": ""
      },
      "UsageTerms": {
          "Mehrfachwerte": "Nein",
          "Group": "Rechte",
          "Zuordnung": "Standard",
          "Mapping": "Lizenzinformationen (Typ)",
          "Anweisungen": "Angabe einer Lizenz, unter der das Werk zur weiteren Nutzung zur Verfügung gestellt wird, das CVMA Potsdam stellt seine Bilddaten unter CC BY-NC 4.0 zur Verfügung.",
          "Auswahlliste": [
              "CC BY-NC 4.0",
              "In Copyright - Urheberrechtsschutz",
              "Copyright not evaluated - Urheberrechtsschutz nicht bewertet"
          ],
          "InterneAnmerkungen": ""
      },
      "WebStatement": {
          "Mehrfachwerte": "Nein",
          "Group": "Rechte",
          "Zuordnung": "Standard",
          "Mapping": "Lizenzinformationen (URL)",
          "Anweisungen": "A Web URL for a statement of the ownership and usage rights for this resource, z. B. https://creativecommons.org/licenses/by-nc/4.0/.",
          "Auswahlliste": [
              "https://creativecommons.org/licenses/by-nc/4.0/",
              "https://rightsstatements.org/vocab/InC/1.0/",
              "https://rightsstatements.org/vocab/CNE/1.0/"
          ],
          "InterneAnmerkungen": "Bilder werden möglichst mit der Lizenz CC BY-NC ausgestattet, die generische Copyrightangabe kann für Konvolute genutzt werden, die nicht zur Nachnutzung lizenziert werden können."
      },
      "PublishingStatus": {
          "Mehrfachwerte": "Nein",
          "Group": "Freigabe_Hinweise",
          "Zuordnung": "Standard",
          "Mapping": "Freigabe",
          "Anweisungen": "Wenn wahr, dann ist das Objekt/Bild für die öffentliche Publikation freigegeben, z.B. auf den Internetseiten. Wenn falsch, dann ist das Bild nur für den internen Arbeitsgebrauch der Arbeitsstelle freigegeben und darf nicht veröffentlicht werden, Werte: True/False",
          "Auswahlliste": [
              "true",
              "false"
          ],
          "InterneAnmerkungen": "Perspektvischer Umsetzungswunsch: Wenn true Häkchen setzen statt Auswahl true oder false."
      },
      "Instructions": {
          "Mehrfachwerte": "Nein",
          "Group": "Freigabe_Hinweise",
          "Zuordnung": "Standard",
          "Mapping": "Hinweise (intern)",
          "Anweisungen": "Freitextfeld zur Aufnahme von Hinweisen und Bemerkungen zur vorliegenden Fotografie",
          "InterneAnmerkungen": ""
      },
      "HoldingInstitution": {
          "Mehrfachwerte": "Nein",
          "Group": "Archivverwaltung",
          "Zuordnung": "Intern",
          "Mapping": "Arbeitsstelle",
          "Anweisungen": "Hier wird die das Bild verwaltende Arbeitsstelle eingetragen.",
          "Auswahlliste": [
              "Freiburg",
              "Potsdam"
          ],
          "InterneAnmerkungen": "Darf nicht in das Bild geschrieben werden."
      },
      "PublishToArchive": {
          "Mehrfachwerte": "Nein",
          "Group": "Freigabe_Hinweise",
          "Zuordnung": "Standard",
          "Mapping": "Im Onlinebildarchiv veröffentlichen",
          "Anweisungen": "Wenn wahr, dann ist das Objekt/Bild für die öffentliche Publikation im Internet freigegeben. Wenn falsch, dann ist das Bild nur für den internen Arbeitsgebrauch der Arbeitsstelle freigegeben und darf nicht veröffentlicht werden, Werte: True/False",
          "Auswahlliste": [
              "true",
              "false"
          ],
          "InterneAnmerkungen": "Dient der Markierung online publizierter Bilddaten."
      },
      "AllgemeinRest": {
          "Mehrfachwerte": "Nein",
          "Group": "Restecontainer",
          "Zuordnung": "Intern",
          "Mapping": "Allgemein (Rest)",
          "Anweisungen": "Restecontainer aus der Migration Filemaker 2 XMP für alle Metadaten unter Allgemeines.",
          "InterneAnmerkungen": "Darf nicht in Mainzkonvertierung erscheinen, nur intern CVMA Potsdam."
      },
      "AufnahmeRest": {
          "Mehrfachwerte": "Nein",
          "Group": "Restecontainer",
          "Zuordnung": "Intern",
          "Mapping": "Aufnahme (Rest)",
          "Anweisungen": "Restecontainer aus der Migration Filemaker 2 XMP für alle Metadaten unter Aufnahme.",
          "InterneAnmerkungen": "Darf nicht in Mainzkonvertierung erscheinen, nur intern CVMA Potsdam."
      },
      "BemerkungenRest": {
          "Mehrfachwerte": "Nein",
          "Group": "Restecontainer",
          "Zuordnung": "Intern",
          "Mapping": "Bemerkungen (Rest)",
          "Anweisungen": "Restecontainer aus der Migration Filemaker 2 XMP für alle Metadaten aus den Bemerkungsfeldern in Filemaker.",
          "InterneAnmerkungen": "Darf nicht in Mainzkonvertierung erscheinen, nur intern CVMA Potsdam."
      },
      "PersonenRest": {
          "Mehrfachwerte": "Nein",
          "Group": "Restecontainer",
          "Zuordnung": "Intern",
          "Mapping": "Personen (Rest)",
          "Anweisungen": "Restecontainer aus der Migration Filemaker 2 XMP für alle Metadaten unter Personen.",
          "InterneAnmerkungen": "Darf nicht in Mainzkonvertierung erscheinen, nur intern CVMA Potsdam."
      },
      "IconclassRest": {
          "Mehrfachwerte": "Nein",
          "Group": "Restecontainer",
          "Zuordnung": "Intern",
          "Mapping": "Iconclass (Rest)",
          "Anweisungen": "Restecontainer aus der Migration Filemaker 2 XMP für alle Metadaten unter IconClass.",
          "InterneAnmerkungen": "Darf nicht in Mainzkonvertierung erscheinen, nur intern CVMA Potsdam."
      },
      "OrtRest": {
          "Mehrfachwerte": "Nein",
          "Group": "Restecontainer",
          "Zuordnung": "Intern",
          "Mapping": "Ort (Rest)",
          "Anweisungen": "Restecontainer aus der Migration Filemaker 2 XMP für alle Metadaten unter Ort.",
          "InterneAnmerkungen": "Darf nicht in Mainzkonvertierung erscheinen, nur intern CVMA Potsdam."
      },
      "ScheibeRest": {
          "Mehrfachwerte": "Nein",
          "Group": "Restecontainer",
          "Zuordnung": "Intern",
          "Mapping": "Scheibe (Rest)",
          "Anweisungen": "Restecontainer aus der Migration Filemaker 2 XMP für alle Metadaten unter Scheibe.",
          "InterneAnmerkungen": "Darf nicht in Mainzkonvertierung erscheinen, nur intern CVMA Potsdam."
      },
      "AbgleichArchivHelper": {
          "Mehrfachwerte": "Nein",
          "Group": "Info",
          "Zuordnung": "Intern",
          "Mapping": "Abgleich Archiv",
          "Anweisungen": "Status Abgleich mit dem analogen Fotoarchiv des CVMA Potsdam.",
          "InterneAnmerkungen": "Darf nicht in Mainzkonvertierung erscheinen, nur intern CVMA Potsdam."
      },
      "BildbearbeitungNeuscanHelper": {
          "Mehrfachwerte": "Nein",
          "Group": "Info",
          "Zuordnung": "Intern",
          "Mapping": "Status Bildbearbeitung, Neuscan ...",
          "Anweisungen": "Bitte entsprechende Informationen eintragen, wenn das Bild neu gescannt oder nachbearbeitet werden sollte.",
          "InterneAnmerkungen": "Darf nicht in Mainzkonvertierung erscheinen, nur intern CVMA Potsdam."
      },
      "MigrationStatusTemporaryCopy": {
          "Mehrfachwerte": "Nein",
          "Group": "Info",
          "Zuordnung": "Intern",
          "Mapping": "Vorläufige Kopie",
          "Anweisungen": "Status M1-4 besagt, dass das Bild aus der Migration Filemaker 2 XMP stammt und noch nicht vollständig verschlagwortet worden ist. Nxxxxx... besagt, dass das Bild neu aufgenommen aber noch nicht vollständig verschlagwortet worden ist.",
          "InterneAnmerkungen": "Darf nicht in Mainzkonvertierung erscheinen, nur intern CVMA Potsdam."
      },
      "JSONSaveDate": {
          "Mehrfachwerte": "Nein",
          "Group": "Info",
          "Zuordnung": "Intern",
          "Mapping": "Datum JSON",
          "Anweisungen": "letzte Änderung im JSON",
          "InterneAnmerkungen": "Nur intern"
      },
      "XMPSaveDate": {
          "Mehrfachwerte": "Nein",
          "Group": "Info",
          "Zuordnung": "Intern",
          "Mapping": "Datum XMP",
          "Anweisungen": "letzte Änderung im XMP",
          "InterneAnmerkungen": "Nur intern"
      },
      "description": {
          "Mehrfachwerte": "Nein",
          "Group": "Info",
          "Zuordnung": "Intern",
          "Mapping": "Beschreibung",
          "Anweisungen": "Dieses Feld ist nicht durch uns auszufüllen oder zu bearbeiten.",
          "InterneAnmerkungen": "Darf nicht in Mainzkonvertierung erscheinen, nur intern."
      },
      "subject": {
          "Mehrfachwerte": "Nein",
          "Group": "Info",
          "Zuordnung": "Intern",
          "Mapping": "Stichwörter",
          "Anweisungen": "Dieses Feld ist nicht durch uns auszufüllen oder zu bearbeiten.",
          "InterneAnmerkungen": "Darf nicht in Mainzkonvertierung erscheinen, nur intern."
      },
      "DateTimeOriginal": {
          "Mehrfachwerte": "Nein",
          "Group": "Info",
          "Zuordnung": "Intern",
          "Mapping": "Originaldatum",
          "Anweisungen": "Dieses Feld ist nicht durch uns auszufüllen oder zu bearbeiten.",
          "InterneAnmerkungen": "Darf nicht in Mainzkonvertierung erscheinen, nur intern."
      },
      "Model": {
          "Mehrfachwerte": "Nein",
          "Group": "Info",
          "Zuordnung": "Intern",
          "Mapping": "Kameramodell",
          "Anweisungen": "Dieses Feld ist nicht durch uns auszufüllen oder zu bearbeiten.",
          "InterneAnmerkungen": "Darf nicht in Mainzkonvertierung erscheinen, nur intern."
      },
      "SerialNumber": {
          "Mehrfachwerte": "Nein",
          "Group": "Info",
          "Zuordnung": "Intern",
          "Mapping": "Seriennummer",
          "Anweisungen": "Dieses Feld ist nicht durch uns auszufüllen oder zu bearbeiten.",
          "InterneAnmerkungen": "Darf nicht in Mainzkonvertierung erscheinen, nur intern."
      },
      "Make": {
          "Mehrfachwerte": "Nein",
          "Group": "Info",
          "Zuordnung": "Intern",
          "Mapping": "Hersteller",
          "Anweisungen": "Dieses Feld ist nicht durch uns auszufüllen oder zu bearbeiten.",
          "InterneAnmerkungen": "Darf nicht in Mainzkonvertierung erscheinen, nur intern."
      },
      "CreatorTool": {
          "Mehrfachwerte": "Nein",
          "Group": "Info",
          "Zuordnung": "Intern",
          "Mapping": "Erstellt mit Software",
          "Anweisungen": "Dieses Feld ist nicht durch uns auszufüllen oder zu bearbeiten.",
          "InterneAnmerkungen": "Darf nicht in Mainzkonvertierung erscheinen, nur intern."
      },
      "ICCProfile": {
          "Mehrfachwerte": "Nein",
          "Group": "Info",
          "Zuordnung": "Intern",
          "Mapping": "ICC Profil",
          "Anweisungen": "Dieses Feld ist nicht durch uns auszufüllen oder zu bearbeiten.",
          "InterneAnmerkungen": "Darf nicht in Mainzkonvertierung erscheinen, nur intern."
      },
      "DRM": {
          "Mehrfachwerte": "Nein",
          "Group": "Info",
          "Zuordnung": "Intern",
          "Mapping": "DRM",
          "Anweisungen": "Dieses Feld wird beim XMP-Schreiben des DRM ausgefüllt.",
          "InterneAnmerkungen": "Muss noch in einen anderen Namespace überführt werden."
      }
  },
  "Startmenus": {
      "Allgemein": [
          "Status",
          "FileName",
          "Identifier",
          "Title",
          "Type",
          "Relation",
          "Volume",
          "Figure"
      ],
      "Aufnahme": [
          "Status",
          "FileName",
          "Identifier",
          "PhotographicType",
          "DigitalSourceType",
          "PhotographicContext",
          "CreateDate",
          "CreateDateHelper"
      ],
      "Ort": [
          "Status",
          "FileName",
          "Identifier",
          "LocationCreatedWorldRegion",
          "LocationCreatedCountryName",
          "LocationCreatedProvinceState",
          "LocationCreatedCity",
          "LocationCreatedSublocation",
          "PartOfBuilding",
          "GPSLatitude",
          "GPSLongitude",
          "LocationCreatedLocationId"
      ],
      "Ort_Scheibenposition": [
          "Status",
          "FileName",
          "Identifier",
          "Direction",
          "Pane",
          "Row",
          "Column",
          "FormerLocation",
          "FormerLocationIds"
      ],
      "Scheibe": [
          "Status",
          "FileName",
          "Identifier",
          "ObjectHeight",
          "ObjectWidth",
          "ObjectDiameter",
          "AOCircaDateCreated",
          "AgeDeterminationStart",
          "AgeDeterminationEnd",
          "PaneLost"
      ],
      "Restaurierungen": [
          "Status",
          "FileName",
          "Identifier",
          "RestorationHistory",
          "RestorationHistory",
          "RestorationCircaDate",
          "RestorationDateStart",
          "RestorationDateEnd",
          "RestorationEvent"
      ],
      "Personen_Körperschaften": [
          "Status",
          "FileName",
          "Identifier",
          "EntityName",
          "EntityIdentifier",
          "EntityRole"
      ],
      "IconClass": [
          "Status",
          "FileName",
          "Identifier",
          "IconclassNotation",
          "IconclassDescription"
      ],
      "Rechte": [
          "Status",
          "FileName",
          "Identifier",
          "Marked",
          "Creator",
          "Owner",
          "Publisher",
          "Credit",
          "UsageTerms",
          "WebStatement"
      ],
      "Freigabe_Hinweise": [
          "Status",
          "FileName",
          "Identifier",
          "PublishingStatus",
          "Instructions"
      ],
      "Restecontainer": [
          "Status",
          "FileName",
          "Identifier",
          "AllgemeinRest",
          "AufnahmeRest",
          "BemerkungenRest",
          "IconclassRest",
          "OrtRest",
          "ScheibeRest"
      ],
      "Archivverwaltung": [
          "Status",
          "FileName",
          "Identifier",
          "Angemeldet",
          "DatumJSON",
          "DatumXMP",
          "PublishToArchive",
          "HoldingInstitution",
          "AbgleichArchivHelper",
          "BildbearbeitungNeuscanHelper",
          "MigrationStatusTemporaryCopy"
      ],
      "Bildgalerie": [
          "Status",
          "FileName",
          "Image",
          "Title"
      ]
  }
}
